{
  "remove_whitelist": {
    "message": "Remove from Whitelist"
  },
  "add_whitelist": {
    "message": "Add to Whitelist"
  },
  "remove_blacklist": {
    "message": "Remove from Blacklist"
  },
  "add_blacklist": {
    "message": "Add to Blacklist"
  },
  "global_options": {
    "message": "Global Options"
  },
  "mode": {
    "message": "Mode:"
  },
  "whitelist_mode": {
    "message": "Whitelist (Off by default)"
  },
  "blacklist_mode": {
    "message": "Blacklist (On by default)"
  },
  "monitor_cb": {
    "message": "Monitor Changes"
  },
  "reload_to_apply": {
    "message": "Reload page to apply changes"
  }
}