<?xml version="1.0" encoding="UTF-8" standalone="no"?>
<!-- Created with Inkscape (http://www.inkscape.org/) -->

<svg
        xmlns:dc="http://purl.org/dc/elements/1.1/"
        xmlns:cc="http://creativecommons.org/ns#"
        xmlns:rdf="http://www.w3.org/1999/02/22-rdf-syntax-ns#"
        xmlns="http://www.w3.org/2000/svg"
        xmlns:sodipodi="http://sodipodi.sourceforge.net/DTD/sodipodi-0.dtd"
        xmlns:inkscape="http://www.inkscape.org/namespaces/inkscape"
        width="96"
        height="96"
        viewBox="0 0 25.4 25.4"
        version="1.1"
        id="svg8"
        inkscape:version="0.92.3 (2405546, 2018-03-11)"
        sodipodi:docname="icon_off.svg">
    <defs
            id="defs2"/>
    <sodipodi:namedview
            id="base"
            pagecolor="#ffffff"
            bordercolor="#666666"
            borderopacity="1.0"
            inkscape:pageopacity="0.0"
            inkscape:pageshadow="2"
            inkscape:zoom="1.979899"
            inkscape:cx="28.997818"
            inkscape:cy="36.143524"
            inkscape:document-units="mm"
            inkscape:current-layer="layer1"
            showgrid="false"
            units="px"
            inkscape:window-width="1591"
            inkscape:window-height="1711"
            inkscape:window-x="0"
            inkscape:window-y="0"
            inkscape:window-maximized="0"/>
    <metadata
            id="metadata5">
        <rdf:RDF>
            <cc:Work
                    rdf:about="">
                <dc:format>image/svg+xml</dc:format>
                <dc:type
                        rdf:resource="http://purl.org/dc/dcmitype/StillImage"/>
                <dc:title/>
            </cc:Work>
        </rdf:RDF>
    </metadata>
    <g
            inkscape:label="Livello 1"
            inkscape:groupmode="layer"
            id="layer1"
            transform="translate(0,-271.59998)">
        <rect
                style="opacity:1;fill:#999999;fill-opacity:1;stroke:#000000;stroke-width:0.34281909;stroke-linecap:round;stroke-linejoin:bevel;stroke-miterlimit:4;stroke-dasharray:none;stroke-dashoffset:0;stroke-opacity:1"
                id="rect821"
                width="25.057182"
                height="25.05718"
                x="0.24135742"
                y="271.7627"/>
        <g
                transform="matrix(0.08141918,0,0,0.08141918,-57.432028,230.62742)"
                id="g31">
            <g
                    id="g1027-3"
                    transform="matrix(0.47736608,0.26567454,-0.26567454,0.47736608,567.4388,325.97483)">
                <path
                        style="fill:none"
                        inkscape:connector-curvature="0"
                        id="path7-5"
                        d="m 924.4,120.2 c 3.2,0.8 6.4,-1 7,-4 0.6,-3.1 -1.5,-6.2 -4.7,-7 -3.2,-0.8 -6.4,1 -7,4 -0.7,3.1 1.4,6.2 4.7,7 z"
                        class="st1"/>
                <path
                        style="fill:#e94c87"
                        inkscape:connector-curvature="0"
                        id="path9-0"
                        d="m 946.5,221.6 -29.9,-22.7 -6,22.5 0.7,0.2 24.5,18.1 c 7.9,5.9 12.6,15.5 12.6,25.8 l 7,61.1 2.1,-81.6 c 0,-9.4 -4,-18.1 -11,-23.4 z"
                        class="st2"/>
                <path
                        style="fill:#e94c87"
                        inkscape:connector-curvature="0"
                        id="path11-4"
                        d="m 844.5,216.2 -30.8,74.2 30.7,-51.4 c 4.1,-9.3 12.2,-15.7 21.7,-17.1 l 29.5,-4.4 0.8,0.2 3.6,-23.1 -36.3,5.8 c -8.5,1.4 -15.7,7.3 -19.2,15.8 z"
                        class="st2"/>
                <path
                        style="fill:#e94c87"
                        inkscape:connector-curvature="0"
                        id="path13-2"
                        d="m 854.2,244.6 -0.2,0.4 -32.8,54.9 123.3,31.5 -7.4,-65.2 v -0.4 c 0.1,-6.3 -2.7,-12.3 -7.7,-15.9 l -22.2,-16.4 -0.6,2.2 -12.6,-3.2 0.4,-2.3 -26.9,4 c -5.9,0.7 -10.9,4.6 -13.3,10.4 z"
                        class="st2"/>
                <path
                        style="fill:#2b2b2b"
                        inkscape:connector-curvature="0"
                        id="path21-0"
                        d="m 970.3,355.6 c -4.1,2.4 -7.4,5.8 -10.7,9.3 -3.2,3.4 -6.6,6.9 -9.1,10.9 -1.4,2.2 1.3,4.6 3.1,3.5 3.9,-2.4 7.4,-5.9 10.9,-9.1 3.6,-3.3 6.8,-6.5 9.4,-10.8 1.4,-2.4 -1.5,-5 -3.6,-3.8 z"
                        class="st3"/>
                <g
                        id="g1012-8">
                    <path
                            class="st3"
                            d="m 966.1,333.1 2.2,-87.8 c 0.3,-13.5 -5.5,-26.1 -15.6,-33.7 l -31.9,-24.2 -1.1,-0.3 20,-74.6 c 0.7,-3.3 -4.6,-7.4 -11.8,-9.3 -7.2,-1.8 -13.6,-0.7 -14.3,2.6 l -11.9,76.7 -1.1,-0.3 -38.7,6.2 c -12.2,1.9 -22.5,10.5 -27.6,22.8 l -33.1,79.9 c -1.5,3.6 -1.4,7.7 0.2,11.3 1.6,3.6 4.5,6.1 8,7 l 9,2.3 123.9,31.6 9,2.3 c 3.5,0.9 7.2,0 10,-2.4 3,-2.5 4.7,-6.1 4.8,-10.1 z m -39.4,-224 c 3.2,0.8 5.3,4 4.7,7 -0.6,3.1 -3.8,4.9 -7,4 -3.2,-0.8 -5.3,-4 -4.7,-7 0.6,-3 3.8,-4.8 7,-4 z m -32.6,123.2 12.6,3.2 0.6,-2.2 22.2,16.4 c 4.9,3.6 7.8,9.6 7.7,15.9 v 0.4 l 7.4,65.2 -123.3,-31.5 32.8,-54.9 0.2,-0.4 c 2.4,-5.7 7.4,-9.7 13.3,-10.6 l 26.9,-4 z m 54.1,33.2 c 0.1,-10.3 -4.6,-19.9 -12.6,-25.8 l -24.5,-18.1 -0.7,-0.2 6,-22.5 29.9,22.7 c 7,5.3 11,14 10.8,23.4 l -2.1,81.6 z m -51.9,-47.7 -0.8,-0.2 -29.5,4.4 c -9.5,1.4 -17.6,7.8 -21.7,17.1 l -30.7,51.4 30.8,-74.2 c 3.5,-8.5 10.7,-14.4 19.1,-15.8 l 36.3,-5.8 z"
                            id="path15-6"
                            inkscape:connector-curvature="0"
                            style="fill:#2b2b2b"/>
                    <path
                            class="st3"
                            d="m 978.6,359.3 c -2.9,9.3 -8.2,17.3 -15.4,23.1 -2.8,2.3 -0.1,7.4 2.8,5.2 8.6,-6.7 14.8,-15.6 18.5,-26.5 1.2,-4.1 -4.6,-5.9 -5.9,-1.8 z"
                            id="path23-7"
                            inkscape:connector-curvature="0"
                            style="fill:#2b2b2b"/>
                    <path
                            class="st3"
                            d="m 979.9,205.9 c -1.7,-1.4 -3.7,0 -4.3,1.9 -0.7,-0.9 -1.4,-1.8 -2.1,-2.7 -2.2,-2.8 -6.3,0.8 -4.6,3.9 2.1,4 4.3,7.9 6.3,11.9 1.9,3.8 3.5,8 6.3,11 1.7,1.8 5.3,0.6 5,-2.3 -0.1,-0.6 -0.2,-1.3 -0.3,-1.9 0.4,-0.4 0.7,-0.9 0.8,-1.5 2,-7.9 -1.3,-15.5 -7.1,-20.3 z"
                            id="path25-2"
                            inkscape:connector-curvature="0"
                            style="fill:#2b2b2b"/>
                </g>
            </g>
        </g>
        <text
                xml:space="preserve"
                style="font-style:normal;font-variant:normal;font-weight:normal;font-stretch:normal;font-size:19.13108826px;line-height:1.25;font-family:'Franklin Gothic Demi';-inkscape-font-specification:'Franklin Gothic Demi';letter-spacing:0px;word-spacing:0px;fill:#cccccc;fill-opacity:1;stroke:#000000;stroke-width:0.23634191;stroke-miterlimit:4;stroke-dasharray:none;stroke-opacity:1;"
                x="6.6120763"
                y="289.96286"
                id="text825"><tspan
         sodipodi:role="line"
         id="tspan823"
         x="6.6120763"
         y="289.96286"
         style="font-style:normal;font-variant:normal;font-weight:normal;font-stretch:normal;font-family:'Franklin Gothic Demi';-inkscape-font-specification:'Franklin Gothic Demi';fill:#cccccc;fill-opacity:1;stroke:#000000;stroke-width:0.23634191;stroke-miterlimit:4;stroke-dasharray:none;stroke-opacity:1;">B</tspan></text>
        <g
                transform="matrix(0.0368776,-0.01563918,0.01563918,0.0368776,-41.832304,279.77512)"
                id="g137-9">
            <g
                    id="g1153"
                    transform="translate(492.32672,389.97452)">
                <g
                        id="g119-5">
                    <path
                            style="fill:none"
                            inkscape:connector-curvature="0"
                            id="path111-3"
                            d="m 499.9,106.2 c 4.3,-1 7.1,-4.9 6.3,-8.7 -0.8,-3.8 -5,-6.1 -9.3,-5.1 -4.3,1 -7.1,4.9 -6.3,8.7 0.8,3.8 5,6.1 9.3,5.1 z"
                            class="st1"/>
                    <polygon
                            style="fill:#e94c87"
                            id="polygon113-0"
                            points="596.1,209.7 531.6,199.3 539,246.3 522.3,250.2 509.6,204.4 455,242.4 462.5,277.1 603.6,244.4 "
                            class="st2"/>
                    <path
                            style="fill:#2b2b2b"
                            inkscape:connector-curvature="0"
                            id="path115-9"
                            d="m 633.5,298.9 c -4,-7 -7.6,-14.2 -10.5,-21.7 -2.6,-6.5 -4,-13.6 -6.9,-20.1 l 5,-1.2 -12.9,-59.6 -77.5,-12.5 -1.5,0.3 -15.1,-95.8 c -0.9,-4.1 -9.4,-5.7 -18.9,-3.4 -9.6,2.2 -16.6,7.3 -15.7,11.5 l 25.9,93.3 -1.4,0.3 -65.5,45.6 12.9,59.6 3,-0.7 c -0.9,5.3 -1.1,10.7 -1.4,16 -0.4,7.1 -0.9,14.3 -1,21.4 -0.1,5.9 2.8,9.5 9.6,9.8 7.8,0.3 15.8,-0.1 23.7,-0.7 31.8,-2.4 63.1,-11.7 94.1,-19.4 17.3,-4.3 35,-8.6 51.4,-15.8 2.9,-1.2 4,-4.7 2.7,-6.9 z M 496.9,92.3 c 4.3,-1 8.5,1.3 9.3,5.1 0.8,3.8 -2,7.7 -6.3,8.7 -4.3,1 -8.5,-1.3 -9.3,-5.1 -0.8,-3.8 2,-7.7 6.3,-8.7 z m -41.9,150.1 54.5,-38 12.7,45.8 16.7,-3.9 -7.4,-47 64.5,10.4 7.5,34.7 -141.1,32.7 z m 158.2,59.2 c -0.8,-1.4 -1.9,-2.6 -2.8,-3.9 -2.3,-3.1 -4.5,-6.3 -7.5,-8.9 -1.5,-1.2 -4.4,-0.1 -3.9,1.9 0.9,3.7 2.9,7 4.7,10.3 0.5,0.9 1,1.9 1.6,2.9 -2.7,0.8 -5.5,1.5 -8.2,2.2 -0.5,-0.7 -1,-1.4 -1.5,-2.1 -2.3,-3.3 -4.7,-6.6 -6.4,-10.2 -0.8,-1.6 -3.8,-0.5 -3.3,1.2 1.1,4.1 2,8.1 3.9,12 0.1,0.3 0.3,0.5 0.4,0.8 -5.5,1.3 -11.1,2.6 -16.6,4 -1.1,-2 -2.4,-4 -3.7,-5.9 -1.4,-2.2 -2.7,-4.4 -4.8,-6 -1.1,-0.8 -3.2,0.3 -3.2,1.5 0,2.6 1.3,5 2.3,7.4 0.7,1.6 1.4,3.3 2.1,4.9 -4.8,1.2 -9.5,2.5 -14.3,3.7 -0.5,-1 -1.1,-1.9 -1.6,-2.9 -1.8,-3.5 -3.4,-7.2 -5.7,-10.5 -1.1,-1.5 -4.1,-0.7 -3.6,1.3 0.8,3.5 2.3,6.9 3.6,10.3 0.4,1.1 0.8,2.2 1.2,3.4 -5,1.3 -10.1,2.6 -15.1,3.9 -0.7,-1.5 -1.5,-2.9 -2.2,-4.3 -1.4,-2.9 -2.9,-5.7 -4.5,-8.5 -1.1,-1.8 -4.6,-0.7 -4,1.5 0.9,3.3 1.9,6.6 3,9.8 0.4,1.1 0.7,2.1 1.1,3.2 -1.6,0.4 -3.2,0.8 -4.8,1.1 -3.3,0.8 -6.6,1.5 -9.9,2.2 -0.9,-5 -3.4,-10.1 -5.5,-14.3 -0.7,-1.4 -3.2,-0.8 -3.3,0.8 -0.2,4.6 -0.3,10.1 0.8,15 -4.7,0.8 -9.4,1.5 -14.1,2 0.1,-4.9 -0.3,-9.8 -2,-14.4 -0.5,-1.4 -2.9,-1.8 -3.6,0 -1.7,4.8 -2.2,9.8 -2.1,14.8 0,0.1 0,0.2 0,0.4 -4.5,0.3 -9.1,0.5 -13.7,0.5 -1.2,0 -2.4,0 -3.6,0 -0.2,1.1 -0.3,0.9 -0.3,-0.5 -0.3,-2.1 0.1,-4.5 0.2,-6.6 0.1,-3.8 0.2,-7.7 0.4,-11.5 0.2,-7 0.8,-14.4 -0.2,-21.4 L 606,259.4 c 0.7,7.3 3.7,14.5 6.3,21.3 2.4,6.3 5.2,12.4 8.3,18.4 -2.4,0.9 -4.9,1.7 -7.4,2.5 z"
                            class="st3"/>
                    <path
                            style="fill:#f8be37"
                            inkscape:connector-curvature="0"
                            id="path117-3"
                            d="m 620.7,299 c -2.5,0.9 -5,1.8 -7.5,2.6 -0.8,-1.4 -1.9,-2.6 -2.8,-3.9 -2.3,-3.1 -4.5,-6.3 -7.5,-8.9 -1.5,-1.2 -4.4,-0.1 -3.9,1.9 0.9,3.7 2.9,7 4.7,10.3 0.5,0.9 1,1.9 1.6,2.9 -2.7,0.8 -5.5,1.5 -8.2,2.2 -0.5,-0.7 -1,-1.4 -1.5,-2.1 -2.3,-3.3 -4.7,-6.6 -6.4,-10.2 -0.8,-1.6 -3.8,-0.5 -3.3,1.2 1.1,4.1 2,8.1 3.9,12 0.1,0.3 0.3,0.5 0.4,0.8 -5.5,1.3 -11.1,2.6 -16.6,4 -1.1,-2 -2.4,-4 -3.7,-5.9 -1.4,-2.2 -2.7,-4.4 -4.8,-6 -1.1,-0.8 -3.2,0.3 -3.2,1.5 0,2.6 1.3,5 2.3,7.4 0.7,1.6 1.4,3.3 2.1,4.9 -4.8,1.2 -9.5,2.5 -14.3,3.7 -0.5,-1 -1.1,-1.9 -1.6,-2.9 -1.8,-3.5 -3.4,-7.2 -5.7,-10.5 -1.1,-1.5 -4.1,-0.7 -3.6,1.3 0.8,3.5 2.3,6.9 3.6,10.3 0.4,1.1 0.8,2.2 1.2,3.4 -5,1.3 -10.1,2.6 -15.1,3.9 -0.7,-1.5 -1.5,-2.9 -2.2,-4.3 -1.4,-2.9 -2.9,-5.7 -4.5,-8.5 -1.1,-1.8 -4.6,-0.7 -4,1.5 0.9,3.3 1.9,6.6 3,9.8 0.4,1.1 0.7,2.1 1.1,3.2 -1.6,0.4 -3.2,0.8 -4.8,1.1 -3.3,0.8 -6.6,1.5 -9.9,2.2 -0.9,-5 -3.4,-10.1 -5.5,-14.3 -0.7,-1.4 -3.2,-0.8 -3.3,0.8 -0.2,4.6 -0.3,10.1 0.8,15 -4.7,0.8 -9.4,1.5 -14.1,2 0.1,-4.9 -0.3,-9.8 -2,-14.4 -0.5,-1.4 -2.9,-1.8 -3.6,0 -1.7,4.8 -2.2,9.8 -2.1,14.8 0,0.1 0,0.2 0,0.4 -4.5,0.3 -9.1,0.5 -13.7,0.5 -1.2,0 -2.4,0 -3.6,0 -0.2,1.1 -0.3,0.9 -0.3,-0.5 -0.3,-2.1 0.1,-4.5 0.2,-6.6 0.1,-3.8 0.2,-7.7 0.4,-11.5 0.2,-7 0.8,-14.4 -0.2,-21.4 L 606,259.4 c 0.7,7.3 3.7,14.5 6.3,21.3 2.5,6.3 5.3,12.4 8.4,18.3 z"
                            class="st4"/>
                </g>
                <path
                        style="fill:#2b2b2b"
                        inkscape:connector-curvature="0"
                        id="path125-1"
                        d="m 426.4,223.2 c -4,5.1 -9.4,14.8 -5.1,21.3 0.8,1.3 3,1.7 3.8,0 1.2,-2.8 1.1,-5.6 1.4,-8.6 0.3,-3.7 1.1,-7.2 2.6,-10.6 0.6,-1.6 -1.4,-3.7 -2.7,-2.1 z"
                        class="st3"/>
                <path
                        style="fill:#2b2b2b"
                        inkscape:connector-curvature="0"
                        id="path127-9"
                        d="m 431.6,232 c -1,2 -2,4 -3,6 -1.1,2.2 -1.6,4.1 -1.9,6.5 -0.4,3.3 4.2,3.9 5.6,1.6 2.2,-3.7 2.7,-8.1 3.5,-12.2 0.5,-2.6 -3,-4.4 -4.2,-1.9 z"
                        class="st3"/>
                <path
                        style="fill:#2b2b2b"
                        inkscape:connector-curvature="0"
                        id="path129-2"
                        d="m 450.9,354.1 c -2,-2.8 -5,-4.3 -7.8,-6.2 -2.7,-2 -5.2,-4.5 -7.8,-6.7 -1.7,-1.4 -4.8,-0.2 -4,2.4 1.2,3.9 3.5,7.1 6.4,9.9 2.8,2.7 6.4,5.7 10.5,5.5 2.1,-0.1 4.2,-2.8 2.7,-4.9 z"
                        class="st3"/>
                <path
                        style="fill:#2b2b2b"
                        inkscape:connector-curvature="0"
                        id="path131-8"
                        d="m 446.4,364.5 c -7.2,-2.1 -14,-5.6 -19.8,-10.5 -1.2,-1.1 -2.8,0.5 -1.8,1.8 5.2,6.8 12,11.5 20.1,13.8 3.4,0.9 4.7,-4.2 1.5,-5.1 z"
                        class="st3"/>
            </g>
        </g>
    </g>
</svg>
